Lösningar i R till vissa uppgifter från övningskompendierna (samt lite annat kul)
…
I detta fallet går det så klart snabbare att bara skriva round(x,1), men när du applicerar många funktioner på x så skall du snart se att du kan skriva mycket mer intuitiv kod med %>%

round(exp(diff(log(x))), 1)
## [1]  3.3  1.8  1.6  0.5  0.3  0.1 48.8  1.1
x %>% log() %>% diff() %>% exp() %>% round(1)
## [1]  3.3  1.8  1.6  0.5  0.3  0.1 48.8  1.1

Framför allt är som sagt dplyr bra för datamanipulering. Den innehåller en rad bra funkltioner som jag demonstrerar nedan med hjälp av ett data set vi redan är bekanta med, gapminder.

library(gapminder)
gapminder

## # A tibble: 1,704 x 6
##    country     continent  year lifeExp      pop gdpPercap
##    <fct>       <fct>     <int>   <dbl>    <int>     <dbl>
##  1 Afghanistan Asia       1952    28.8  8425333      779.
##  2 Afghanistan Asia       1957    30.3  9240934      821.
##  3 Afghanistan Asia       1962    32.0 10267083      853.
##  4 Afghanistan Asia       1967    34.0 11537966      836.
##  5 Afghanistan Asia       1972    36.1 13079460      740.
##  6 Afghanistan Asia       1977    38.4 14880372      786.
##  7 Afghanistan Asia       1982    39.9 12881816      978.
##  8 Afghanistan Asia       1987    40.8 13867957      852.
##  9 Afghanistan Asia       1992    41.7 16317921      649.
## 10 Afghanistan Asia       1997    41.8 22227415      635.
## # ... with 1,694 more rows
…
I stället för 1704 rader har vi nu bara 12, det vill säga alla värden där kolumnen country är lika med Sverige ("Sverige").

5.4.2 select()

Med select väljer vi helt enkelt kolumner baserat på deras namn. Vi har i vårt data set som sagt 6 kolumner, säg att vi är intresserade av endast en kolumn, nämligen den kolumn som heter country

gapminder %>% select(country)

## # A tibble: 1,704 x 1
##    country    
##    <fct>      
##  1 Afghanistan
##  2 Afghanistan
##  3 Afghanistan
##  4 Afghanistan
##  5 Afghanistan
##  6 Afghanistan
##  7 Afghanistan
##  8 Afghanistan
##  9 Afghanistan
## 10 Afghanistan
## # ... with 1,694 more rows
…
I första steget väljer vi alla rader där country är lika med "Sverige" och i andra steget väljer vi kolumnerna som heter year och lifeExp.

5.4.3 mutate()

med mutate() skapar vi nya kolumner baserat på befintliga kolumner. Det vill säga, vi applicerar en funktion på en eller flera befintliga kolumner och skapar en ny. Vi har BNP per capita och vi har population, så vi skulle kunna skapa en ny kolumn, gdp, genom att multiplicera gdp per capita med population, i.e. gdpPercap*pop

gapminder %>% 
  mutate(gdp = gdpPercap*pop)

## # A tibble: 1,704 x 7
##    country     continent  year lifeExp      pop gdpPercap          gdp
##    <fct>       <fct>     <int>   <dbl>    <int>     <dbl>        <dbl>
##  1 Afghanistan Asia       1952    28.8  8425333      779.  6567086330.
##  2 Afghanistan Asia       1957    30.3  9240934      821.  7585448670.
##  3 Afghanistan Asia       1962    32.0 10267083      853.  8758855797.
##  4 Afghanistan Asia       1967    34.0 11537966      836.  9648014150.
##  5 Afghanistan Asia       1972    36.1 13079460      740.  9678553274.
##  6 Afghanistan Asia       1977    38.4 14880372      786. 11697659231.
##  7 Afghanistan Asia       1982    39.9 12881816      978. 12598563401.
##  8 Afghanistan Asia       1987    40.8 13867957      852. 11820990309.
##  9 Afghanistan Asia       1992    41.7 16317921      649. 10595901589.
## 10 Afghanistan Asia       1997    41.8 22227415      635. 14121995875.
## # ... with 1,694 more rows
…
