Lösningar i R (samt lite annat kul)
…
Många funktioner i R kommer från externa paket. Vissa av dem är otroligt enkla att använda, andra tar lång tid att lära sig. Vem som helst kan skriva ett paket, och de är enkla att installera. Det finns otroligt många paket, och användningsområdena är nästan lika många. För att demonstrera hur installation av ett paket går till kan vi titta på ett paket som heter gapminder, som innehåller data tillänglig på Gapminder.org.

Första gången du använder ett paket behöver du installera det. Det gör du genom att skriva

install.packages("gapminder")

Observera citationstecken. Detta behöver du bara göra en gång på din dator. När du vill använda paketet i framtiden måste du, varje gång du öppnar RStudio, skriva

library(gapminder)

Paketet gapminder är ett litet paket och innehåller inga funktioner, bara dataset. Ett av dataseten heter gapminder och innehåller data på bland annat förväntad linvslängd, population, BNP etc. Du laddar ner datan genom att helt enkelt skriva

gapminder

## # A tibble: 1,704 x 6
##    country     continent  year lifeExp      pop gdpPercap
##    <fct>       <fct>     <int>   <dbl>    <int>     <dbl>
##  1 Afghanistan Asia       1952    28.8  8425333      779.
##  2 Afghanistan Asia       1957    30.3  9240934      821.
##  3 Afghanistan Asia       1962    32.0 10267083      853.
##  4 Afghanistan Asia       1967    34.0 11537966      836.
##  5 Afghanistan Asia       1972    36.1 13079460      740.
##  6 Afghanistan Asia       1977    38.4 14880372      786.
##  7 Afghanistan Asia       1982    39.9 12881816      978.
##  8 Afghanistan Asia       1987    40.8 13867957      852.
##  9 Afghanistan Asia       1992    41.7 16317921      649.
## 10 Afghanistan Asia       1997    41.8 22227415      635.
## # ... with 1,694 more rows
…
